[ {
  "name" : "The Dota 2 Remixes EP",
  "platform" : [ "music" ],
  "releaseDate" : "11 фев. 2020",
  "review" : "Очень положительные<br>91% из 617 обзоров положительные.",
  "price" : "Бесплатно"
}, {
  "name" : "Music for The Long Dark -- Volume One",
  "platform" : [ "music" ],
  "releaseDate" : "29 авг. 2017",
  "review" : "Очень положительные<br>93% из 115 обзоров положительные.",
  "price" : "1 600₸"
}, {
  "name" : "Valve Complete Pack",
  "platform" : [ "win" ],
  "releaseDate" : "",
  "review" : "Очень положительные<br>89% из 11,365,013 обзоров пользователей на игры из этого набора положительные.",
  "price" : "16 894₸"
}, {
  "name" : "Teenage Blob",
  "platform" : [ "win", "mac" ],
  "releaseDate" : "13 авг. 2020",
  "review" : "Очень положительные<br>97% из 98 обзоров положительные.",
  "price" : "1 600₸"
} ]